<?xml version="1.0" encoding="UTF-8"?>
<session version="1.0">
<refactoring comment="Rename method &apos;com.gconsulting.webapp.action.BasePage.getUser()&apos; to &apos;getRemoteUser&apos;&#x0A;- Original project: &apos;coin-analytics&apos;&#x0A;- Original element: &apos;com.gconsulting.webapp.action.BasePage.getUser()&apos;&#x0A;- Renamed element: &apos;com.gconsulting.webapp.action.BasePage.getRemoteUser()&apos;&#x0A;- Update references to refactored element" delegate="false" deprecate="false" description="Rename method &apos;getUser&apos;" flags="589830" id="org.eclipse.jdt.ui.rename.method" input="/src\/main\/java&lt;com.gconsulting.webapp.action{BasePage.java[BasePage~getUser" name="getRemoteUser" references="true" stamp="1425083696083" version="1.0"/>
</session>