{
	"query": {
		"count":1,
		"created":"2015-01-30T21:58:39Z",
		"lang":"en-GB",
		"results": {
			"rate": {
				"id":"EURUSD",
				"Name":"EUR to USD",
				"Rate":"1.1283",
				"Date":"1/30/2015",
				"Time":"4:58pm",
				"Ask":"1.1286",
				"Bid":"1.1281"
				}
			}
		}
}
